module github.com/HugoBlox/theme-academic-cv

go 1.15

require (
	github.com/HugoBlox/hugo-blox-builder/modules/blox-bootstrap/v5 v5.9.8-0.20240310162319-c03355fea540
	github.com/HugoBlox/hugo-blox-builder/modules/blox-plugin-netlify v1.1.2-0.20240310162319-c03355fea540
	github.com/HugoBlox/hugo-blox-builder/modules/blox-plugin-reveal v1.1.3-0.20240310162319-c03355fea540
)
